{
    "KPlugin": {
        "Authors": [
            {
                "Name": "Christoph Thielecke",
                "Name[ar]": "Christoph Thielecke",
                "Name[az]": "Christoph Thielecke",
                "Name[ca@valencia]": "Christoph Thielecke",
                "Name[ca]": "Christoph Thielecke",
                "Name[cs]": "Christoph Thielecke",
                "Name[de]": "Christoph Thielecke",
                "Name[el]": "Christoph Thielecke",
                "Name[en_GB]": "Christoph Thielecke",
                "Name[es]": "Christoph Thielecke",
                "Name[et]": "Christoph Thielecke",
                "Name[eu]": "Christoph Thielecke",
                "Name[fi]": "Christoph Thielecke",
                "Name[fr]": "Christoph Thielecke",
                "Name[gl]": "Christoph Thielecke",
                "Name[it]": "Christoph Thielecke",
                "Name[ka]": "ქრისტოფ ზელეცკე",
                "Name[ko]": "Christoph Thielecke",
                "Name[nl]": "Christoph Thielecke",
                "Name[nn]": "Christoph Thielecke",
                "Name[pl]": "Christoph Thielecke",
                "Name[pt]": "Christoph Thielecke",
                "Name[pt_BR]": "Christoph Thielecke",
                "Name[ru]": "Christoph Thielecke",
                "Name[sk]": "Christoph Thielecke",
                "Name[sl]": "Christoph Thielecke",
                "Name[sv]": "Christoph Thielecke",
                "Name[tr]": "Christoph Thielecke",
                "Name[uk]": "Christoph Thielecke",
                "Name[x-test]": "xxChristoph Thieleckexx",
                "Name[zh_CN]": "Christoph Thielecke"
            }
        ],
        "Category": "Analyzers",
        "Description": "This plugin integrates Cppcheck (static analysis tool) to KDevelop",
        "Description[az]": "Bu qoşma, Cppcheck'i (statik təhlil alıti) KDevelop'a inteqrasiya edir",
        "Description[ca@valencia]": "Este connector integra Cppcheck (eina per a l'anàlisi estàtica) a KDevelop",
        "Description[ca]": "Aquest connector integra el Cppcheck (eina per a l'anàlisi estàtica) al KDevelop",
        "Description[cs]": "Tento modul integruje Cppcheck (statický analytický nástroj) do KDevelop",
        "Description[de]": "Dieses Modul integriert Cppcheck (Werkzeug zur statischen Analyse) in KDevelop",
        "Description[el]": "Αυτό το πρόσθετο ενσωματώνει το cppcheck (εργαλείο στατικής ανάλυσης) στο KDevelop",
        "Description[en_GB]": "This plugin integrates Cppcheck (static analysis tool) to KDevelop",
        "Description[es]": "Este complemento integra Cppcheck (herramienta de análisis sintáctico) en KDevelop",
        "Description[et]": "See plugin lõimib Cppchecki (staatilise analüüsi tööriist) KDevelopiga",
        "Description[eu]": "Plugin honek Cppcheck (analisi estatikoko tresna) KDevelopen integratzen du",
        "Description[fr]": "Ce module externe intègre Cppcheck (outil d'analyse statique) à KDevelop",
        "Description[gl]": "Este complemento integra Cppcheck (unha ferramenta de análise estática) con KDevelop.",
        "Description[it]": "Questa estensione integra Cppcheck (strumento di analisi statica) in KDevelop",
        "Description[ko]": "이 플러그인은 KDevelop에 Cppcheck(정적 분석 도구)를 통합합니다",
        "Description[nl]": "Deze plugin integreert Cppcheck (statisch analyse hulpmiddel) in KDevelop",
        "Description[pl]": "Wplata Cppcheck (statyczne narzędzie analizy) w KDevelop",
        "Description[pt]": "Este 'plugin' integra o Cppcheck (ferramenta de análise estática) no KDevelop",
        "Description[pt_BR]": "Este plugin integra o Cppcheck (ferramenta de análise estática) no KDevelop",
        "Description[ru]": "Это расширение интегрирует поддержку Cppcheck (утилита статического анализа) в KDevelop",
        "Description[sk]": "Tento plugin integruje Cppcheck (nástroj na statickú analýzy) pre KDevelop",
        "Description[sl]": "Ta vstavek v KDevelop vgradi Cppcheck (orodje za statično preučevanje)",
        "Description[sv]": "Insticksprogrammet integrerar Cppcheck (statiskt analysverktyg) i KDevelop",
        "Description[tr]": "Bu eklenti, Cppcheck uygulamasını (durgun çözümleme aracı) K Geliştir ile tümleştirir",
        "Description[uk]": "За допомогою цього додатка можна інтегрувати Cppcheck (засіб статичного аналізу) до KDevelop",
        "Description[x-test]": "xxThis plugin integrates Cppcheck (static analysis tool) to KDevelopxx",
        "Description[zh_CN]": "此插件集成了 Cppcheck (静态分析工具) 到 KDevelop",
        "Icon": "cppcheck",
        "Id": "kdevcppcheck",
        "License": "GPL",
        "Name": "Cppcheck Support",
        "Name[az]": "Cppcheck dəstəyi",
        "Name[ca@valencia]": "Implementació de Cppcheck",
        "Name[ca]": "Implementació de Cppcheck",
        "Name[cs]": "Podpora Cppcheck",
        "Name[de]": "Cppcheck-Unterstützung",
        "Name[el]": "Υποστήριξη cppcheck",
        "Name[en_GB]": "Cppcheck Support",
        "Name[es]": "Implementación de Cppcheck",
        "Name[et]": "Cppchecki toetus",
        "Name[eu]": "«Cppcheck» euskarria",
        "Name[fi]": "Cppcheck-tuki",
        "Name[fr]": "Prise en charge de Cppcheck",
        "Name[gl]": "Compatibilidade con Cppcheck.",
        "Name[it]": "Supporto per Cppcheck",
        "Name[ka]": "Cppcheck-ის მხარდაჭერა",
        "Name[ko]": "Cppcheck 지원",
        "Name[nl]": "Ondersteuning van Cppcheck",
        "Name[pl]": "Obsługa Cppcheck",
        "Name[pt]": "Suporte para o Cppcheck",
        "Name[pt_BR]": "Suporte ao Cppcheck",
        "Name[ru]": "Поддержка Cppcheck",
        "Name[sk]": "Podpora Cppcheck",
        "Name[sl]": "Podpora za Cppcheck",
        "Name[sv]": "Cppcheck-stöd",
        "Name[tr]": "Cppcheck Desteği",
        "Name[uk]": "Підтримка Cppcheck",
        "Name[x-test]": "xxCppcheck Supportxx",
        "Name[zh_CN]": "Cppcheck 支持"
    },
    "X-KDevelop-Category": "Global",
    "X-KDevelop-Mode": "GUI"
}
